A Replication of Karlan and List (2007) – Yuzhi Tao’s Website
…
    filter, lag

The following objects are masked from 'package:base':

    intersect, setdiff, setequal, union

library(ggplot2)

Warning: package 'ggplot2' was built under R version 4.3.3

data <- read_dta("karlan_list_2007.dta")

data

# A tibble: 50,083 × 51
   treatment control ratio    ratio2 ratio3 size    size25 size50 size100 sizeno
       <dbl>   <dbl> <dbl+lb>  <dbl>  <dbl> <dbl+l>  <dbl>  <dbl>   <dbl>  <dbl>
 1         0       1 0 [Cont…      0      0 0 [Con…      0      0       0      0
 2         0       1 0 [Cont…      0      0 0 [Con…      0      0       0      0
 3         1       0 1             0      0 3 [$10…      0      0       1      0
 4         1       0 1             0      0 4 [Uns…      0      0       0      1
 5         1       0 1             0      0 2 [$50…      0      1       0      0
 6         0       1 0 [Cont…      0      0 0 [Con…      0      0       0      0
 7         1       0 1             0      0 1 [$25…      1      0       0      0
 8         1       0 2             1      0 3 [$10…      0      0       1      0
 9         1       0 2             1      0 4 [Uns…      0      0       0      1
10         1       0 1             0      0 1 [$25…      1      0       0      0
# ℹ 50,073 more rows
# ℹ 41 more variables: ask <dbl+lbl>, askd1 <dbl>, askd2 <dbl>, askd3 <dbl>,
#   ask1 <dbl>, ask2 <dbl>, ask3 <dbl>, amount <dbl>, gave <dbl>,
#   amountchange <dbl>, hpa <dbl>, ltmedmra <dbl>, freq <dbl>, years <dbl>,
#   year5 <dbl>, mrm2 <dbl>, dormant <dbl>, female <dbl>, couple <dbl>,
#   state50one <dbl>, nonlit <dbl>, cases <dbl>, statecnt <dbl>,
#   stateresponse <dbl>, stateresponset <dbl>, stateresponsec <dbl>, …
…
